{
    "guide": {
        "toc": [
            {
                "title": "PyVallex Guide", "content": "search.html",
                "children": [{"title": "Searching", "content": "search.html"}]
            },
            {
                "title": "Vallex", "content": "vallex.about.html",
                "children": [

            {
                "title": "O valenci",
                "content": "vallex.theory.html",
                "children": [
                    {   "title": "Úvod",
                        "content": "vallex.theory.html",
                        "link": "#sec-sect-valence-slovniky"
                    },
                    {
                        "title": "Valence sloves",
                        "content": "vallex.theory.html",
                        "link": "#sec-sect-valence-teorie"
                    },
                    {
                        "title": "Aktanty a volná doplnění ve FGP",
                        "content": "vallex.theory.html",
                        "link": "#sec-sect-aktanty-volna",
                        "children": [
                            {
                                "title": "Princip 'kognitivního' posouvání ",
                                "content": "vallex.theory.html",
                                "link": "#sec-sect-aktanty-posouvani"
                            },
                            {
                                "title": "Charakteristika aktantů",
                                "content": "vallex.theory.html",
                                "link": "#sec-sect-character"
                            },
                            {
                                "title": "Obligatornost vs. fakultativnost: dialogový test",
                                "content": "vallex.theory.html",
                                "link": "#sec-sect-oblig-fakult"
                            },
                            {
                                "title": "Valenční rámec ve FGP",
                                "content": "vallex.theory.html",
                                "link": "#sec-sect-vr"
                            },
                            {
                                "title": "Zachycení valence ve slovníku VALLEX",
                                "content": "vallex.theory.html",
                                "link": "#sec-sect-vallex"
                            }
                        ]
                    },
                    {
                        "title": "Alternace",
                        "link": "#sec-sect-valence-alternace",
                        "content": "vallex.theory.html",
                        "children": [
                            {
                                "title": "Gramatikalizované alternace",
                                "content": "vallex.theory.html",
                                "link": "#sec-sect-gram-alternace"
                            },
                            {
                                "title": "Reprezentace gramatikalizovaných alternací ve VALLEXu",
                                "content": "vallex.theory.html",
                                "link": "#sec-sect-gram-rep"
                            },
                            {
                                "title": "Lexikalizované alternace",
                                "content": "vallex.theory.html",
                                "link": "#sec-sect-lexikal-alternace"
                            },
                            {
                                "title": "Reprezentace lexikalizovaných alternací ve VALLEXu",
                                "content": "vallex.theory.html",
                                "link": "#sec-sect-lex-rep"
                            }
                        ]
                    },
                    {"title": "Seznam literatury",
                     "content": "vallex.theory.html",
                     "link": "#sec:biblio"}
                ]
            },
            {"title": "Gramatická komponenta", "content": "vallex.grammar.html"},
            {
                "title": "Podoba hesla",
                "content": "vallex.guide.html"
            }
            ]},
            {
                "title": "NomVallex", "content": "nomvallex.uvod.html",
                "children": [
                    {"title": "Shrnutí", "content": "nomvallex.shrnuti.html"},
                    {"title": "English summary", "content": "nomvallex.summary.html"}
                ]
            },
            {
                "title": "Legal",
                "content": "legal.html"
            }
        ]
    },
    "topics": {
        "search-form": {
            "title": "Writing Search Queries",
            "content": "search-form.html"
        }
    }
}
